ANA=24
ARI=53
BOS=6
BUF=7
CAR=12
CBJ=29
CGY=20
CHI=16
COL=21
DAL=25
DET=17
EDM=22
FLA=13
LAK=26
MIN=30
MTL=8
NSH=18
NUD=1
NYI=2
NYR=3
OTT=9
PHI=4
PIT=5
SJS=28
STL=19
TBL=14
TOR=10
VAN=23
WPG=52
WSH=15